Hindi Maps
…
names(indlan) <- names(lan1)

indlan$Major <- grepl('\\d+', indlan$language) & !grepl('Others', indlan$language)

indlan %>% filter(Area=="INDIA") %>% filter(Major) %>% arrange(-Total_P) %>% mutate(Share=Total_P/sum(Total_P)) %>% select(language, Total_P, Share) 

# A tibble: 122 x 3
   language       Total_P  Share
   <chr>            <int>  <dbl>
 1 6 HINDI      528347193 0.436 
 2 2 BENGALI     97237669 0.0803
 3 13 MARATHI    83026680 0.0686
 4 21 TELUGU     81127740 0.0670
 5 20 TAMIL      69026881 0.0570
 6 5 GUJARATI    55492554 0.0458
 7 22 URDU       50772631 0.0419
 8 7 KANNADA     43706512 0.0361
 9 15 ODIA       37521324 0.0310
10 11 MALAYALAM  34838819 0.0288
# ... with 112 more rows

indlan %>% filter(Area=="INDIA") %>% filter(!Major) %>% arrange(-Total_P) %>% mutate(Share=Total_P/sum(Total_P)) %>% select(language, Total_P, Share) 

# A tibble: 355 x 3
   language    Total_P  Share
   <chr>         <int>  <dbl>
 1 Hindi     322230097 0.267 
 2 Bengali    96177835 0.0796
 3 Marathi    82801140 0.0685
 4 Telugu     80912459 0.0669
 5 Tamil      68888839 0.0570
 6 Gujarati   55036204 0.0455
 7 Urdu       50725762 0.0420
 8 Bhojpuri   50579447 0.0418
 9 Kannada    43506272 0.0360
10 Malayalam  34776533 0.0288
# ... with 345 more rows
…
